$jmldata = Device::count();        
        $data = Device::all();
        $iterate = ["a","b","c","d","e","f","g","h","i","j","k","l","m",
                    "n","o","p","q","r","s","t","u","v","w","x","y","z"," ",
                    "1","2","3","4","5","6","7","8","9","0"];
        $j=0;
        foreach ($data as $d)
        {
            $device_id = $d['device_id'];
            for ( $i=0 ; $i < strlen($device_id); $i++ )
            {
                $output[$i] = array_search($device_id[$i],$iterate);
            }
            
            $id[$j] = $output;
            $j++;
        }
        $devid = $request->input('id');
        
        for ( $i=0; $i < count ($user); $i++)
        {
            for ( $j=0; $j < strlen ($devid); $j++)
            {
                $id[$j] = intval($devid[$j]);
            }
            
            for ( $k=0; $k < count($user[$i]); $k++)
            {
                
            }
        }