$unique = User::all();
        $devid = $request->input('id');
        
        foreach ($unique as $u)
        {
            
            $data = $u['unique_id'];
            // proses kalkulasi untuk mendapatkan numerik device_id
            $j=0;
            for ($i=0; $i < strlen((string)$devid); $i++)
            {
                if ($devid[$i]-$data[$j]<0)
                {
                    $hasil[$j] = ($devid[$i].$devid[$i+1]) - $data[$j];
                    $i++;
                }
                else
                $hasil[$j] = $devid[$i] - $data[$j];

                $j++;
            }
            
            $jmldata = Device::count();        
            $data = Device::all();
            $iterate = range ('a','z');
            $j=0;
            foreach ($data as $d)
            {
                $device_id = $d['device_id'];
                for ( $i=0 ; $i < strlen($device_id); $i++ )
                {
                    $output[$i] = array_search($device_id[$i],$iterate);
                }
                
                $id[$j] = $output;
                $j++;
            }

            return $id;

        }